[
  {
    "id": 0,
    "code": "9",
    "name": "本科第一批"
  },{
    "id": 1,
    "code": "12",
    "name": "本科第二批"
  },{
    "id": 2,
    "code": "14",
    "name": "本科第一批预科"
  },{
    "id": 3,
    "code": "15",
    "name": "本科第二批预科B"
  }
]
