[{
		"id": 11,
		"name": "北京市",
		"shortName": "北京",
		"abbr": "京",
		"innerId": 1
	},
	{
		"id": 12,
		"name": "天津市",
		"shortName": "天津",
		"abbr": "津",
		"innerId": 2
	},
	{
		"id": 13,
		"name": "河北省",
		"shortName": "河北",
		"abbr": "冀",
		"innerId": 3
	},
	{
		"id": 14,
		"name": "山西省",
		"shortName": "山西",
		"abbr": "晋",
		"innerId": 5
	},
	{
		"id": 15,
		"name": "内蒙古自治区",
		"shortName": "内蒙古",
		"abbr": "蒙",
		"innerId": 6
	},
	{
		"id": 21,
		"name": "辽宁省",
		"shortName": "辽宁",
		"abbr": "辽",
		"innerId": 7
	},
	{
		"id": 22,
		"name": "吉林省",
		"shortName": "吉林",
		"abbr": "吉",
		"innerId": 8
	},
	{
		"id": 23,
		"name": "黑龙江省",
		"shortName": "黑龙江",
		"abbr": "黑",
		"innerId": 9
	},
	{
		"id": 31,
		"name": "上海市",
		"shortName": "上海",
		"abbr": "沪",
		"innerId": 10
	},
	{
		"id": 32,
		"name": "江苏省",
		"shortName": "江苏",
		"abbr": "苏",
		"innerId": 11
	},
	{
		"id": 33,
		"name": "浙江省",
		"shortName": "浙江",
		"abbr": "浙",
		"innerId": 12
	},
	{
		"id": 34,
		"name": "安徽省",
		"shortName": "安徽",
		"abbr": "皖",
		"innerId": 13
	},
	{
		"id": 35,
		"name": "福建省",
		"shortName": "福建",
		"abbr": "闽",
		"innerId": 14
	},
	{
		"id": 36,
		"name": "江西省",
		"shortName": "江西",
		"abbr": "赣",
		"innerId": 15
	},
	{
		"id": 37,
		"name": "山东省",
		"shortName": "山东",
		"abbr": "鲁",
		"innerId": 16
	},
	{
		"id": 41,
		"name": "河南省",
		"shortName": "河南",
		"abbr": "豫",
		"innerId": 17
	},
	{
		"id": 42,
		"name": "湖北省",
		"shortName": "湖北",
		"abbr": "荆",
		"innerId": 18
	},
	{
		"id": 43,
		"name": "湖南省",
		"shortName": "湖南",
		"abbr": "湘",
		"innerId": 19
	},
	{
		"id": 44,
		"name": "广东省",
		"shortName": "广东",
		"abbr": "粤",
		"innerId": 20
	},
	{
		"id": 45,
		"name": "广西壮族自治区",
		"shortName": "广西",
		"abbr": "桂",
		"innerId": 21
	},
	{
		"id": 46,
		"name": "海南省",
		"shortName": "海南",
		"abbr": "琼",
		"innerId": 22
	},
	{
		"id": 50,
		"name": "重庆市",
		"shortName": "重庆",
		"abbr": "渝",
		"innerId": 23
	},
	{
		"id": 51,
		"name": "四川省",
		"shortName": "四川",
		"abbr": "川",
		"innerId": 24
	},
	{
		"id": 52,
		"name": "贵州省",
		"shortName": "贵州",
		"abbr": "贵",
		"innerId": 25
	},
	{
		"id": 53,
		"name": "云南省",
		"shortName": "云南",
		"abbr": "云",
		"innerId": 26
	},
	{
		"id": 54,
		"name": "西藏自治区",
		"shortName": "西藏",
		"abbr": "藏",
		"innerId": 27
	},
	{
		"id": 61,
		"name": "陕西省",
		"shortName": "陕西",
		"abbr": "陕",
		"innerId": 33
	},
	{
		"id": 62,
		"name": "甘肃省",
		"shortName": "甘肃",
		"abbr": "甘",
		"innerId": 28
	},
	{
		"id": 63,
		"name": "青海省",
		"shortName": "青海",
		"abbr": "青",
		"innerId": 29
	},
	{
		"id": 64,
		"name": "宁夏回族自治区",
		"shortName": "宁夏",
		"abbr": "宁",
		"innerId": 30
	},
	{
		"id": 65,
		"name": "新疆维吾尔自治区",
		"shortName": "新疆",
		"abbr": "新",
		"innerId": 31
	},
	{
		"id": 71,
		"name": "台湾省",
		"shortName": "台湾",
		"abbr": "台",
		"innerId": 0
	},
	{
		"id": 81,
		"name": "香港特别行政区",
		"shortName": "香港",
		"abbr": "港",
		"innerId": 0
	},
	{
		"id": 82,
		"name": "澳门特别行政区",
		"shortName": "澳门",
		"abbr": "澳",
		"innerId": 0
	}
]